<?xml version='1.0' encoding='UTF-8' ?>
<svg xmlns='http://www.w3.org/2000/svg' xmlns:xlink='http://www.w3.org/1999/xlink' class='svglite' width='792.00pt' height='446.40pt' viewBox='0 0 792.00 446.40'>
<defs>
  <style type='text/css'><![CDATA[
    .svglite line, .svglite polyline, .svglite polygon, .svglite path, .svglite rect, .svglite circle {
      fill: none;
      stroke: #000000;
      stroke-linecap: round;
      stroke-linejoin: round;
      stroke-miterlimit: 10.00;
    }
  ]]></style>
</defs>
<rect width='100%' height='100%' style='stroke: none; fill: none;'/>
<defs>
  <clipPath id='cpMC4wMHw3OTIuMDB8MC4wMHw0NDYuNDA='>
    <rect x='0.00' y='0.00' width='792.00' height='446.40' />
  </clipPath>
</defs>
<g clip-path='url(#cpMC4wMHw3OTIuMDB8MC4wMHw0NDYuNDA=)'>
<rect x='0.000000000000064' y='0.00' width='792.00' height='446.40' style='stroke-width: 1.94; stroke: none;' />
</g>
<defs>
  <clipPath id='cpMTMyLjExfDczNS4zMXwyOC4zNXwzNjcuNTI='>
    <rect x='132.11' y='28.35' width='603.20' height='339.18' />
  </clipPath>
</defs>
<g clip-path='url(#cpMTMyLjExfDczNS4zMXwyOC4zNXwzNjcuNTI=)'>
<rect x='132.11' y='28.35' width='603.20' height='339.18' style='stroke-width: 1.94; stroke: none; fill: #FFFFFF;' />
<polyline points='132.11,331.56 735.31,331.56 ' style='stroke-width: 0.97; stroke: #EBEBEB; stroke-linecap: butt;' />
<polyline points='132.11,247.70 735.31,247.70 ' style='stroke-width: 0.97; stroke: #EBEBEB; stroke-linecap: butt;' />
<polyline points='132.11,163.85 735.31,163.85 ' style='stroke-width: 0.97; stroke: #EBEBEB; stroke-linecap: butt;' />
<polyline points='132.11,79.99 735.31,79.99 ' style='stroke-width: 0.97; stroke: #EBEBEB; stroke-linecap: butt;' />
<polyline points='132.11,289.63 735.31,289.63 ' style='stroke-width: 1.94; stroke: #EBEBEB; stroke-linecap: butt;' />
<polyline points='132.11,205.78 735.31,205.78 ' style='stroke-width: 1.94; stroke: #EBEBEB; stroke-linecap: butt;' />
<polyline points='132.11,121.92 735.31,121.92 ' style='stroke-width: 1.94; stroke: #EBEBEB; stroke-linecap: butt;' />
<polyline points='132.11,38.06 735.31,38.06 ' style='stroke-width: 1.94; stroke: #EBEBEB; stroke-linecap: butt;' />
<polyline points='201.71,367.52 201.71,28.35 ' style='stroke-width: 1.94; stroke: #EBEBEB; stroke-linecap: butt;' />
<polyline points='317.71,367.52 317.71,28.35 ' style='stroke-width: 1.94; stroke: #EBEBEB; stroke-linecap: butt;' />
<polyline points='433.71,367.52 433.71,28.35 ' style='stroke-width: 1.94; stroke: #EBEBEB; stroke-linecap: butt;' />
<polyline points='549.71,367.52 549.71,28.35 ' style='stroke-width: 1.94; stroke: #EBEBEB; stroke-linecap: butt;' />
<polyline points='665.71,367.52 665.71,28.35 ' style='stroke-width: 1.94; stroke: #EBEBEB; stroke-linecap: butt;' />
<circle cx='201.71' cy='57.68' r='4.62' style='stroke-width: 0.71; stroke: #440154; fill: #440154;' />
<circle cx='317.71' cy='303.89' r='4.62' style='stroke-width: 0.71; stroke: #440154; fill: #440154;' />
<circle cx='433.71' cy='315.80' r='4.62' style='stroke-width: 0.71; stroke: #440154; fill: #440154;' />
<circle cx='549.71' cy='339.95' r='4.62' style='stroke-width: 0.71; stroke: #440154; fill: #440154;' />
<circle cx='665.71' cy='342.13' r='4.62' style='stroke-width: 0.71; stroke: #440154; fill: #440154;' />
<circle cx='201.71' cy='43.76' r='4.62' style='stroke-width: 0.71; stroke: #414487; fill: #414487;' />
<circle cx='317.71' cy='283.43' r='4.62' style='stroke-width: 0.71; stroke: #414487; fill: #414487;' />
<circle cx='433.71' cy='301.12' r='4.62' style='stroke-width: 0.71; stroke: #414487; fill: #414487;' />
<circle cx='549.71' cy='341.46' r='4.62' style='stroke-width: 0.71; stroke: #414487; fill: #414487;' />
<circle cx='665.71' cy='348.58' r='4.62' style='stroke-width: 0.71; stroke: #414487; fill: #414487;' />
<circle cx='201.71' cy='107.83' r='4.62' style='stroke-width: 0.71; stroke: #2A788E; fill: #2A788E;' />
<circle cx='317.71' cy='294.58' r='4.62' style='stroke-width: 0.71; stroke: #2A788E; fill: #2A788E;' />
<circle cx='433.71' cy='304.64' r='4.62' style='stroke-width: 0.71; stroke: #2A788E; fill: #2A788E;' />
<circle cx='549.71' cy='332.32' r='4.62' style='stroke-width: 0.71; stroke: #2A788E; fill: #2A788E;' />
<circle cx='665.71' cy='338.27' r='4.62' style='stroke-width: 0.71; stroke: #2A788E; fill: #2A788E;' />
<circle cx='201.71' cy='53.24' r='4.62' style='stroke-width: 0.71; stroke: #22A884; fill: #22A884;' />
<circle cx='317.71' cy='300.37' r='4.62' style='stroke-width: 0.71; stroke: #22A884; fill: #22A884;' />
<circle cx='433.71' cy='324.85' r='4.62' style='stroke-width: 0.71; stroke: #22A884; fill: #22A884;' />
<circle cx='549.71' cy='350.68' r='4.62' style='stroke-width: 0.71; stroke: #22A884; fill: #22A884;' />
<circle cx='665.71' cy='352.11' r='4.62' style='stroke-width: 0.71; stroke: #22A884; fill: #22A884;' />
<circle cx='201.71' cy='74.96' r='4.62' style='stroke-width: 0.71; stroke: #7AD151; fill: #7AD151;' />
<circle cx='317.71' cy='300.28' r='4.62' style='stroke-width: 0.71; stroke: #7AD151; fill: #7AD151;' />
<circle cx='433.71' cy='315.96' r='4.62' style='stroke-width: 0.71; stroke: #7AD151; fill: #7AD151;' />
<circle cx='549.71' cy='338.27' r='4.62' style='stroke-width: 0.71; stroke: #7AD151; fill: #7AD151;' />
<circle cx='665.71' cy='343.22' r='4.62' style='stroke-width: 0.71; stroke: #7AD151; fill: #7AD151;' />
<polyline points='201.71,57.68 317.71,303.89 433.71,315.80 549.71,339.95 665.71,342.13 ' style='stroke-width: 2.13; stroke: #440154; stroke-linecap: butt;' />
<polyline points='201.71,43.76 317.71,283.43 433.71,301.12 549.71,341.46 665.71,348.58 ' style='stroke-width: 2.13; stroke: #414487; stroke-linecap: butt;' />
<polyline points='201.71,107.83 317.71,294.58 433.71,304.64 549.71,332.32 665.71,338.27 ' style='stroke-width: 2.13; stroke: #2A788E; stroke-linecap: butt;' />
<polyline points='201.71,53.24 317.71,300.37 433.71,324.85 549.71,350.68 665.71,352.11 ' style='stroke-width: 2.13; stroke: #22A884; stroke-linecap: butt;' />
<polyline points='201.71,74.96 317.71,300.28 433.71,315.96 549.71,338.27 665.71,343.22 ' style='stroke-width: 2.13; stroke: #7AD151; stroke-linecap: butt;' />
<line x1='320.48' y1='310.10' x2='319.82' y2='308.61' style='stroke-width: 1.07; stroke: #440154;' />
<line x1='653.49' y1='336.49' x2='659.01' y2='339.03' style='stroke-width: 1.07; stroke: #440154;' />
<line x1='442.82' y1='295.18' x2='439.37' y2='297.43' style='stroke-width: 1.07; stroke: #414487;' />
<line x1='545.82' y1='349.20' x2='547.35' y2='346.15' style='stroke-width: 1.07; stroke: #414487;' />
<line x1='423.64' y1='296.51' x2='428.75' y2='300.64' style='stroke-width: 1.07; stroke: #2A788E;' />
<line x1='537.72' y1='318.73' x2='545.85' y2='327.95' style='stroke-width: 1.07; stroke: #2A788E;' />
<line x1='667.41' y1='318.71' x2='666.13' y2='333.40' style='stroke-width: 1.07; stroke: #2A788E;' />
<line x1='306.55' y1='306.99' x2='311.75' y2='303.91' style='stroke-width: 1.07; stroke: #22A884;' />
<line x1='523.97' y1='332.72' x2='541.61' y2='336.52' style='stroke-width: 1.07; stroke: #7AD151;' />
<line x1='684.37' y1='335.29' x2='672.62' y2='340.28' style='stroke-width: 1.07; stroke: #7AD151;' />
<text x='166.85' y='71.74' text-anchor='middle' style='font-size: 22.76px; fill: #440154; font-family: Arial;' textLength='58.18px' lengthAdjust='spacingAndGlyphs'>100%</text>
<text x='345.05' y='325.40' text-anchor='middle' style='font-size: 22.76px; fill: #440154; font-family: Arial;' textLength='45.53px' lengthAdjust='spacingAndGlyphs'>22%</text>
<text x='462.42' y='316.90' text-anchor='middle' style='font-size: 22.76px; fill: #440154; font-family: Arial;' textLength='45.53px' lengthAdjust='spacingAndGlyphs'>18%</text>
<text x='577.62' y='340.40' text-anchor='middle' style='font-size: 22.76px; fill: #440154; font-family: Arial;' textLength='43.84px' lengthAdjust='spacingAndGlyphs'>11%</text>
<text x='628.92' y='340.41' text-anchor='middle' style='font-size: 22.76px; fill: #440154; font-family: Arial;' textLength='45.53px' lengthAdjust='spacingAndGlyphs'>10%</text>
<text x='166.79' y='48.23' text-anchor='middle' style='font-size: 22.76px; fill: #414487; font-family: Arial;' textLength='58.18px' lengthAdjust='spacingAndGlyphs'>100%</text>
<text x='327.05' y='278.14' text-anchor='middle' style='font-size: 22.76px; fill: #414487; font-family: Arial;' textLength='45.53px' lengthAdjust='spacingAndGlyphs'>27%</text>
<text x='451.78' y='293.38' text-anchor='middle' style='font-size: 22.76px; fill: #414487; font-family: Arial;' textLength='45.53px' lengthAdjust='spacingAndGlyphs'>22%</text>
<text x='521.26' y='363.92' text-anchor='middle' style='font-size: 22.76px; fill: #414487; font-family: Arial;' textLength='45.53px' lengthAdjust='spacingAndGlyphs'>10%</text>
<text x='688.01' y='363.92' text-anchor='middle' style='font-size: 22.76px; fill: #414487; font-family: Arial;' textLength='32.88px' lengthAdjust='spacingAndGlyphs'>8%</text>
<text x='178.58' y='128.96' text-anchor='middle' style='font-size: 22.76px; fill: #2A788E; font-family: Arial;' textLength='58.18px' lengthAdjust='spacingAndGlyphs'>100%</text>
<text x='284.91' y='301.64' text-anchor='middle' style='font-size: 22.76px; fill: #2A788E; font-family: Arial;' textLength='45.53px' lengthAdjust='spacingAndGlyphs'>30%</text>
<text x='399.07' y='299.26' text-anchor='middle' style='font-size: 22.76px; fill: #2A788E; font-family: Arial;' textLength='45.53px' lengthAdjust='spacingAndGlyphs'>26%</text>
<text x='535.90' y='316.93' text-anchor='middle' style='font-size: 22.76px; fill: #2A788E; font-family: Arial;' textLength='45.53px' lengthAdjust='spacingAndGlyphs'>15%</text>
<text x='667.41' y='316.91' text-anchor='middle' style='font-size: 22.76px; fill: #2A788E; font-family: Arial;' textLength='45.53px' lengthAdjust='spacingAndGlyphs'>13%</text>
<text x='236.69' y='63.98' text-anchor='middle' style='font-size: 22.76px; fill: #22A884; font-family: Arial;' textLength='58.18px' lengthAdjust='spacingAndGlyphs'>100%</text>
<text x='292.37' y='325.08' text-anchor='middle' style='font-size: 22.76px; fill: #22A884; font-family: Arial;' textLength='45.53px' lengthAdjust='spacingAndGlyphs'>23%</text>
<text x='446.46' y='346.27' text-anchor='middle' style='font-size: 22.76px; fill: #22A884; font-family: Arial;' textLength='45.53px' lengthAdjust='spacingAndGlyphs'>15%</text>
<text x='571.87' y='363.90' text-anchor='middle' style='font-size: 22.76px; fill: #22A884; font-family: Arial;' textLength='32.88px' lengthAdjust='spacingAndGlyphs'>7%</text>
<text x='643.50' y='363.91' text-anchor='middle' style='font-size: 22.76px; fill: #22A884; font-family: Arial;' textLength='32.88px' lengthAdjust='spacingAndGlyphs'>7%</text>
<text x='224.75' y='96.08' text-anchor='middle' style='font-size: 22.76px; fill: #7AD151; font-family: Arial;' textLength='58.18px' lengthAdjust='spacingAndGlyphs'>100%</text>
<text x='346.27' y='301.81' text-anchor='middle' style='font-size: 22.76px; fill: #7AD151; font-family: Arial;' textLength='45.53px' lengthAdjust='spacingAndGlyphs'>25%</text>
<text x='404.67' y='322.76' text-anchor='middle' style='font-size: 22.76px; fill: #7AD151; font-family: Arial;' textLength='45.53px' lengthAdjust='spacingAndGlyphs'>19%</text>
<text x='499.41' y='340.40' text-anchor='middle' style='font-size: 22.76px; fill: #7AD151; font-family: Arial;' textLength='45.53px' lengthAdjust='spacingAndGlyphs'>12%</text>
<text x='708.94' y='340.40' text-anchor='middle' style='font-size: 22.76px; fill: #7AD151; font-family: Arial;' textLength='45.53px' lengthAdjust='spacingAndGlyphs'>10%</text>
<rect x='132.11' y='28.35' width='603.20' height='339.18' style='stroke-width: 1.94; stroke: #333333;' />
</g>
<g clip-path='url(#cpMC4wMHw3OTIuMDB8MC4wMHw0NDYuNDA=)'>
<text x='123.14' y='295.80' text-anchor='end' style='font-size: 16.00px; fill: #4D4D4D; font-family: Nobile;' textLength='37.58px' lengthAdjust='spacingAndGlyphs'>1000</text>
<text x='123.14' y='211.94' text-anchor='end' style='font-size: 16.00px; fill: #4D4D4D; font-family: Nobile;' textLength='40.40px' lengthAdjust='spacingAndGlyphs'>2000</text>
<text x='123.14' y='128.09' text-anchor='end' style='font-size: 16.00px; fill: #4D4D4D; font-family: Nobile;' textLength='40.65px' lengthAdjust='spacingAndGlyphs'>3000</text>
<text x='123.14' y='44.23' text-anchor='end' style='font-size: 16.00px; fill: #4D4D4D; font-family: Nobile;' textLength='41.14px' lengthAdjust='spacingAndGlyphs'>4000</text>
<polyline points='127.13,289.63 132.11,289.63 ' style='stroke-width: 1.94; stroke: #333333; stroke-linecap: butt;' />
<polyline points='127.13,205.78 132.11,205.78 ' style='stroke-width: 1.94; stroke: #333333; stroke-linecap: butt;' />
<polyline points='127.13,121.92 132.11,121.92 ' style='stroke-width: 1.94; stroke: #333333; stroke-linecap: butt;' />
<polyline points='127.13,38.06 132.11,38.06 ' style='stroke-width: 1.94; stroke: #333333; stroke-linecap: butt;' />
<polyline points='201.71,372.50 201.71,367.52 ' style='stroke-width: 1.94; stroke: #333333; stroke-linecap: butt;' />
<polyline points='317.71,372.50 317.71,367.52 ' style='stroke-width: 1.94; stroke: #333333; stroke-linecap: butt;' />
<polyline points='433.71,372.50 433.71,367.52 ' style='stroke-width: 1.94; stroke: #333333; stroke-linecap: butt;' />
<polyline points='549.71,372.50 549.71,367.52 ' style='stroke-width: 1.94; stroke: #333333; stroke-linecap: butt;' />
<polyline points='665.71,372.50 665.71,367.52 ' style='stroke-width: 1.94; stroke: #333333; stroke-linecap: butt;' />
<text x='201.71' y='388.82' text-anchor='middle' style='font-size: 16.00px; fill: #4D4D4D; font-family: Nobile;' textLength='68.82px' lengthAdjust='spacingAndGlyphs'>Geopend</text>
<text x='317.71' y='388.82' text-anchor='middle' style='font-size: 16.00px; fill: #4D4D4D; font-family: Nobile;' textLength='57.17px' lengthAdjust='spacingAndGlyphs'>Gestart</text>
<text x='433.71' y='388.82' text-anchor='middle' style='font-size: 16.00px; fill: #4D4D4D; font-family: Nobile;' textLength='116.44px' lengthAdjust='spacingAndGlyphs'>Determinanten</text>
<text x='549.71' y='388.82' text-anchor='middle' style='font-size: 16.00px; fill: #4D4D4D; font-family: Nobile;' textLength='90.17px' lengthAdjust='spacingAndGlyphs'>Demografie</text>
<text x='665.71' y='388.82' text-anchor='middle' style='font-size: 16.00px; fill: #4D4D4D; font-family: Nobile;' textLength='86.85px' lengthAdjust='spacingAndGlyphs'>Afgemaakt</text>
<text x='433.71' y='413.15' text-anchor='middle' style='font-size: 20.00px; font-family: Nobile;' textLength='196.44px' lengthAdjust='spacingAndGlyphs'>Plek in de vragenlijst</text>
<text transform='translate(72.12,197.93) rotate(-90)' text-anchor='middle' style='font-size: 20.00px; font-family: Nobile;' textLength='178.93px' lengthAdjust='spacingAndGlyphs'>Aantal deelnemers</text>
</g>
</svg>
